{
  "project_info": {
    "project_number": "295511698958",
    "firebase_url": "https://project-5651849845010428059.firebaseio.com",
    "project_id": "project--5651849845010428059",
    "storage_bucket": "project--5651849845010428059.appspot.com"
  },
  "client": [
    {
      "client_info": {
        "mobilesdk_app_id": "1:295511698958:android:22e0a3649bc42b1c",
        "android_client_info": {
          "package_name": "kusmierz.wlodzimierz.pokemon.evolution"
        }
      },
      "oauth_client": [
        {
          "client_id": "295511698958-tm7v41lho5m5u6aurpqkb15p1gkc8hfr.apps.googleusercontent.com",
          "client_type": 3
        }
      ],
      "api_key": [
        {
          "current_key": "AIzaSyC-P7EowKWhpd8H_cDN2XvXo6Fg3pM7qFU"
        }
      ],
      "services": {
        "analytics_service": {
          "status": 1
        },
        "appinvite_service": {
          "status": 1,
          "other_platform_oauth_client": []
        },
        "ads_service": {
          "status": 2
        }
      }
    }
  ],
  "configuration_version": "1"
}